<?xml version="1.0" encoding="UTF-8"?>
<robot generator="Robot 6.0.2 (Python 3.9.6 on win32)" generated="20230527 23:25:43.955" rpa="false" schemaversion="3">
<suite id="s1" name="TC GET Request" source="C:\Users\Administrator\Desktop\PythonProject\batch6\Santoshi-22\TestCases\TC_GET_Request.robot">
<test id="s1-t1" name="Make a call to Reqres.in" line="6">
<kw name="Get_page2info" library="GET_Request_Keyword">
<kw name="Create Session" library="RequestsLibrary">
<arg>mysession</arg>
<arg>https://reqres.in/</arg>
<doc>Create Session: create a HTTP session to a server</doc>
<msg timestamp="20230527 23:25:44.485" level="INFO">Creating Session using : alias=mysession, url=https://reqres.in/, headers={},                     cookies={}, auth=None, timeout=None, proxies=None, verify=False,                     debug=0 </msg>
<status status="PASS" starttime="20230527 23:25:44.485" endtime="20230527 23:25:44.485"/>
</kw>
<kw name="GET On Session" library="RequestsLibrary">
<var>${response}</var>
<arg>mysession</arg>
<arg>url=api/users?page=2</arg>
<doc>Sends a GET request on a previously created HTTP Session.</doc>
<msg timestamp="20230527 23:25:44.788" level="INFO">GET Request : url=https://reqres.in/api/users?page=2 
 path_url=/api/users?page=2 
 headers={'User-Agent': 'python-requests/2.31.0', 'Accept-Encoding': 'gzip, deflate', 'Accept': '*/*', 'Connection': 'keep-alive'} 
 body=None 
 </msg>
<msg timestamp="20230527 23:25:44.788" level="INFO">GET Response : url=https://reqres.in/api/users?page=2 
 status=200, reason=OK 
 headers={'Date': 'Sat, 27 May 2023 17:55:45 GMT', 'Content-Type': 'application/json; charset=utf-8', 'Transfer-Encoding': 'chunked', 'Connection': 'keep-alive', 'X-Powered-By': 'Express', 'Access-Control-Allow-Origin': '*', 'Etag': 'W/"406-ut0vzoCuidvyMf8arZpMpJ6ZRDw"', 'Via': '1.1 vegur', 'Cache-Control': 'max-age=14400', 'CF-Cache-Status': 'HIT', 'Age': '1419', 'Report-To': '{"endpoints":[{"url":"https:\\/\\/a.nel.cloudflare.com\\/report\\/v3?s=OnNJCa468ek6fcMWRlfbB0GgMWzdlKcAhEbrvjnOntC2V2hkjckIzF1VTrO%2BnxaNrc06Kv%2FbsLots4yyCFpx%2BysWuW%2FijtairgHtjLnpLjIoOMBNnfHLEJduTQ%3D%3D"}],"group":"cf-nel","max_age":604800}', 'NEL': '{"success_fraction":0,"report_to":"cf-nel","max_age":604800}', 'Vary': 'Accept-Encoding', 'Server': 'cloudflare', 'CF-RAY': '7ce0216e9c559a7e-NAG', 'Content-Encoding': 'gzip'} 
 body={"page":2,"per_page":6,"total":12,"total_pages":2,"data":[{"id":7,"email":"michael.lawson@reqres.in","first_name":"Michael","last_name":"Lawson","avatar":"https://reqres.in/img/faces/7-image.jpg"},{"id":8,"email":"lindsay.ferguson@reqres.in","first_name":"Lindsay","last_name":"Ferguson","avatar":"https://reqres.in/img/faces/8-image.jpg"},{"id":9,"email":"tobias.funke@reqres.in","first_name":"Tobias","last_name":"Funke","avatar":"https://reqres.in/img/faces/9-image.jpg"},{"id":10,"email":"byron.fields@reqres.in","first_name":"Byron","last_name":"Fields","avatar":"https://reqres.in/img/faces/10-image.jpg"},{"id":11,"email":"george.edwards@reqres.in","first_name":"George","last_name":"Edwards","avatar":"https://reqres.in/img/faces/11-image.jpg"},{"id":12,"email":"rachel.howell@reqres.in","first_name":"Rachel","last_name":"Howell","avatar":"https://reqres.in/img/faces/12-image.jpg"}],"support":{"url":"https://reqres.in/#support-heading","text":"To keep ReqRes free, contributions towards server costs are appreciated!"}} 
 </msg>
<msg timestamp="20230527 23:25:44.788" level="INFO">c:\users\administrator\robot\lib\site-packages\urllib3\connectionpool.py:1045: InsecureRequestWarning: Unverified HTTPS request is being made to host 'reqres.in'. Adding certificate verification is strongly advised. See: https://urllib3.readthedocs.io/en/1.26.x/advanced-usage.html#ssl-warnings
  warnings.warn(</msg>
<msg timestamp="20230527 23:25:44.788" level="INFO">${response} = &lt;Response [200]&gt;</msg>
<status status="PASS" starttime="20230527 23:25:44.485" endtime="20230527 23:25:44.788"/>
</kw>
<kw name="Convert To String" library="BuiltIn">
<var>${status_code}</var>
<arg>${response.status_code}</arg>
<doc>Converts the given item to a Unicode string.</doc>
<msg timestamp="20230527 23:25:44.788" level="INFO">${status_code} = 200</msg>
<status status="PASS" starttime="20230527 23:25:44.788" endtime="20230527 23:25:44.788"/>
</kw>
<kw name="Should Be Equal" library="BuiltIn">
<arg>${status_code}</arg>
<arg>200</arg>
<doc>Fails if the given objects are unequal.</doc>
<status status="PASS" starttime="20230527 23:25:44.788" endtime="20230527 23:25:44.788"/>
</kw>
<kw name="Get From Dictionary" library="Collections">
<var>${contentTypeValue}</var>
<arg>${response.headers}</arg>
<arg>Content-Type</arg>
<doc>Returns a value from the given ``dictionary`` based on the given ``key``.</doc>
<msg timestamp="20230527 23:25:44.788" level="INFO">${contentTypeValue} = application/json; charset=utf-8</msg>
<status status="PASS" starttime="20230527 23:25:44.788" endtime="20230527 23:25:44.788"/>
</kw>
<kw name="Should Be Equal" library="BuiltIn">
<arg>${contentTypeValue}</arg>
<arg>application/json; charset=utf-8</arg>
<doc>Fails if the given objects are unequal.</doc>
<status status="PASS" starttime="20230527 23:25:44.788" endtime="20230527 23:25:44.788"/>
</kw>
<status status="PASS" starttime="20230527 23:25:44.485" endtime="20230527 23:25:44.788"/>
</kw>
<status status="PASS" starttime="20230527 23:25:44.475" endtime="20230527 23:25:44.788"/>
</test>
<doc>Suite description</doc>
<status status="PASS" starttime="20230527 23:25:43.981" endtime="20230527 23:25:44.788"/>
</suite>
<statistics>
<total>
<stat pass="1" fail="0" skip="0">All Tests</stat>
</total>
<tag>
</tag>
<suite>
<stat pass="1" fail="0" skip="0" id="s1" name="TC GET Request">TC GET Request</stat>
</suite>
</statistics>
<errors>
</errors>
</robot>
